simulation/qsim/akkumulator.msim.vcd
$comment
	File created using the following command:
		vcd file akkumulator.msim.vcd -direction
$end
$date
	Sat Jan 05 18:35:04 2019
$end
$version
	ModelSim Version 10.1d
$end
$timescale
	1ps
$end
$scope module akkumulator_vlg_vec_tst $end
$var reg 1 ! clk $end
$var reg 4 " d [3:0] $end
$var reg 1 # e $end
$var reg 1 $ ld $end
$var reg 1 % sub $end
$var wire 1 & c $end
$var wire 1 ' q [3] $end
$var wire 1 ( q [2] $end
$var wire 1 ) q [1] $end
$var wire 1 * q [0] $end
$var wire 1 + z_out [4] $end
$var wire 1 , z_out [3] $end
$var wire 1 - z_out [2] $end
$var wire 1 . z_out [1] $end
$var wire 1 / z_out [0] $end
$var wire 1 0 sampler $end
$scope module i1 $end
$var wire 1 1 gnd $end
$var wire 1 2 vcc $end
$var wire 1 3 unknown $end
$var tri1 1 4 devclrn $end
$var tri1 1 5 devpor $end
$var tri1 1 6 devoe $end
$var wire 1 7 Add1|auto_generated|_~3_combout $end
$var wire 1 8 clk~combout $end
$var wire 1 9 ld~combout $end
$var wire 1 : sub~combout $end
$var wire 1 ; Add1|auto_generated|result_int[0]~1_cout $end
$var wire 1 < Add1|auto_generated|result_int[1]~2_combout $end
$var wire 1 = au_register~0_combout $end
$var wire 1 > e~combout $end
$var wire 1 ? Add1|auto_generated|_~0_combout $end
$var wire 1 @ Add1|auto_generated|result_int[1]~3 $end
$var wire 1 A Add1|auto_generated|result_int[2]~4_combout $end
$var wire 1 B au_register~1_combout $end
$var wire 1 C Add1|auto_generated|_~1_combout $end
$var wire 1 D Add1|auto_generated|result_int[2]~5 $end
$var wire 1 E Add1|auto_generated|result_int[3]~6_combout $end
$var wire 1 F au_register~2_combout $end
$var wire 1 G Add1|auto_generated|_~2_combout $end
$var wire 1 H Add1|auto_generated|result_int[3]~7 $end
$var wire 1 I Add1|auto_generated|result_int[4]~9 $end
$var wire 1 J Add1|auto_generated|result_int[5]~10_combout $end
$var wire 1 K au_register~4_combout $end
$var wire 1 L c~reg0_regout $end
$var wire 1 M q[0]~reg0_regout $end
$var wire 1 N q[1]~reg0_regout $end
$var wire 1 O q[2]~reg0_regout $end
$var wire 1 P Add1|auto_generated|result_int[4]~8_combout $end
$var wire 1 Q au_register~3_combout $end
$var wire 1 R q[3]~reg0feeder_combout $end
$var wire 1 S q[3]~reg0_regout $end
$var wire 1 T d~combout [3] $end
$var wire 1 U d~combout [2] $end
$var wire 1 V d~combout [1] $end
$var wire 1 W d~combout [0] $end
$var wire 1 X au_register [4] $end
$var wire 1 Y au_register [3] $end
$var wire 1 Z au_register [2] $end
$var wire 1 [ au_register [1] $end
$var wire 1 \ au_register [0] $end
$upscope $end
$upscope $end
$enddefinitions $end
#0
$dumpvars
0!
b1010 "
0#
0$
0%
0&
0*
0)
0(
0'
0/
1.
0-
1,
0+
x0
01
12
x3
14
15
16
07
08
09
0:
0;
0<
0=
0>
0?
1@
1A
1B
0C
0D
0E
0F
0G
1H
0I
0J
0K
0L
0M
0N
0O
1P
1Q
0R
0S
0W
1V
0U
1T
0\
0[
0Z
0Y
0X
$end
#5000
1!
18
00
1Y
1[
1R
17
1C
1I
0P
1D
0A
1J
0Q
1E
0B
0,
0.
1K
1F
1+
1-
#10000
0!
08
10
#15000
1!
18
00
1S
0Y
1N
1X
1Z
0[
0R
07
1G
0C
1'
1)
0I
1P
0H
0E
0D
1A
0J
1Q
1I
0P
0F
1H
1E
1B
1,
0-
1.
0K
1J
0Q
0I
1P
1F
0+
0,
1-
1K
0J
1Q
1+
1,
0K
0+
#20000
0!
08
10
#25000
1!
18
00
0S
1Y
1O
0N
1L
0X
1[
1R
17
1C
0'
1(
0)
1&
1I
0P
1D
0A
1J
0Q
0H
0E
0B
0,
0.
1K
1P
0F
1+
0-
1Q
1,
#30000
0!
08
10
#35000
1!
18
00
1S
1N
0L
1X
0Z
0[
0G
0C
1'
1)
0&
1H
1E
0D
1A
0P
1F
0E
1B
1-
1.
0Q
0F
0,
0-
#40000
0!
08
10
#45000
1!
18
00
0Y
0O
0N
1L
1[
0R
07
1C
0(
0)
1&
0I
1P
1D
0A
0J
1Q
1E
0B
1,
0.
0K
1F
0+
1-
#50000
0!
08
10
#55000
1!
18
00
0S
1Y
1N
0X
1Z
0[
1R
17
1G
0C
0'
1)
1I
0P
0H
0E
0D
1A
1J
0Q
1P
0F
1H
1E
1B
0,
0-
1.
1K
1Q
0P
1F
1+
1,
1-
0Q
0,
#60000
0!
08
10
#65000
1!
18
00
1S
0Y
1O
0N
0L
1X
1[
0R
07
1C
1'
1(
0)
0&
0I
1P
1D
0A
0J
1Q
0H
0E
0B
1,
0.
0K
1I
0P
0F
0+
0-
1J
0Q
0,
1K
1+
#70000
0!
08
10
#75000
1!
18
00
0S
1N
1L
0Z
0[
0G
0C
0'
1)
1&
1H
1E
0D
1A
0I
1P
1F
0E
1B
1-
1.
0J
1Q
0F
1,
0-
0K
0+
#80000
0!
08
10
#85000
1!
18
00
1Y
0O
0N
0X
1[
1R
17
1C
0(
0)
1I
0P
1D
0A
1J
0Q
1E
0B
0,
0.
1K
1F
1+
1-
#90000
0!
08
10
#95000
1!
18
00
1S
0Y
1N
0L
1X
1Z
0[
0R
07
1G
0C
1'
1)
0&
0I
1P
0H
0E
0D
1A
0J
1Q
1I
0P
0F
1H
1E
1B
1,
0-
1.
0K
1J
0Q
0I
1P
1F
0+
0,
1-
1K
0J
1Q
1+
1,
0K
0+
#100000
1$
0!
19
08
10
0F
#105000
1!
18
00
0S
1Y
1O
0N
1L
0X
0Z
1[
1R
17
0G
1C
0'
1(
0)
1&
1I
0P
0E
1D
0A
1J
1E
0,
0-
0.
1+
1-
#110000
0!
08
10
#115000
1!
18
00
1S
0O
1N
0L
1'
0(
1)
0&
#120000
0!
08
10
#125000
1!
18
00
#130000
0!
08
10
#135000
1!
18
00
#140000
0!
08
10
#145000
1!
18
00
#150000
0!
08
10
#155000
1!
18
00
#160000
0!
08
10
#165000
1!
18
00
#170000
0!
08
10
#175000
1!
18
00
#180000
0!
08
10
#185000
1!
18
00
#190000
0!
08
10
#195000
1!
18
00
#200000
0$
0!
09
08
10
0Q
1K
1F
0B
#205000
1!
18
00
0Y
1X
1Z
0[
0R
07
1G
0C
0I
1P
0H
0E
0D
1A
0J
1Q
1I
0P
0F
1H
1E
1B
1,
0-
1.
0K
1J
0Q
0I
1P
1F
0+
0,
1-
1K
0J
1Q
1+
1,
0K
0+
#210000
0!
08
10
#215000
1!
18
00
0S
1Y
1O
0N
1L
0X
1[
1R
17
1C
0'
1(
0)
1&
1I
0P
1D
0A
1J
0Q
0H
0E
0B
0,
0.
1K
1P
0F
1+
0-
1Q
1,
#220000
0!
08
10
#225000
1!
18
00
1S
1N
0L
1X
0Z
0[
0G
0C
1'
1)
0&
1H
1E
0D
1A
0P
1F
0E
1B
1-
1.
0Q
0F
0,
0-
#230000
0!
08
10
#235000
1!
18
00
0Y
0O
0N
1L
1[
0R
07
1C
0(
0)
1&
0I
1P
1D
0A
0J
1Q
1E
0B
1,
0.
0K
1F
0+
1-
#240000
0!
08
10
#245000
1!
18
00
0S
1Y
1N
0X
1Z
0[
1R
17
1G
0C
0'
1)
1I
0P
0H
0E
0D
1A
1J
0Q
1P
0F
1H
1E
1B
0,
0-
1.
1K
1Q
0P
1F
1+
1,
1-
0Q
0,
#250000
0!
08
10
#255000
1!
18
00
1S
0Y
1O
0N
0L
1X
1[
0R
07
1C
1'
1(
0)
0&
0I
1P
1D
0A
0J
1Q
0H
0E
0B
1,
0.
0K
1I
0P
0F
0+
0-
1J
0Q
0,
1K
1+
#260000
0!
08
10
#265000
1!
18
00
0S
1N
1L
0Z
0[
0G
0C
0'
1)
1&
1H
1E
0D
1A
0I
1P
1F
0E
1B
1-
1.
0J
1Q
0F
1,
0-
0K
0+
#270000
0!
08
10
#275000
1!
18
00
1Y
0O
0N
0X
1[
1R
17
1C
0(
0)
1I
0P
1D
0A
1J
0Q
1E
0B
0,
0.
1K
1F
1+
1-
#280000
0!
08
10
#285000
1!
18
00
1S
0Y
1N
0L
1X
1Z
0[
0R
07
1G
0C
1'
1)
0&
0I
1P
0H
0E
0D
1A
0J
1Q
1I
0P
0F
1H
1E
1B
1,
0-
1.
0K
1J
0Q
0I
1P
1F
0+
0,
1-
1K
0J
1Q
1+
1,
0K
0+
#290000
0!
08
10
#295000
1!
18
00
0S
1Y
1O
0N
1L
0X
1[
1R
17
1C
0'
1(
0)
1&
1I
0P
1D
0A
1J
0Q
0H
0E
0B
0,
0.
1K
1P
0F
1+
0-
1Q
1,
#300000
1$
0!
19
08
10
0K
1B
#305000
1!
18
00
1S
1N
0L
0Z
0G
1'
1)
0&
1H
1E
0P
1-
0,
#310000
0!
08
10
#315000
1!
18
00
0O
0(
#320000
0!
08
10
#325000
1!
18
00
#330000
0!
08
10
#335000
1!
18
00
#340000
0!
08
10
#345000
1!
18
00
#350000
0!
08
10
#355000
1!
18
00
#360000
0!
08
10
#365000
1!
18
00
#370000
0!
08
10
#375000
1!
18
00
#380000
0!
08
10
#385000
1!
18
00
#390000
0!
08
10
#395000
1!
18
00
#400000
0$
0!
09
08
10
0Q
1K
1F
0B
#405000
1!
18
00
0Y
1X
1Z
0[
0R
07
1G
0C
0I
1P
0H
0E
0D
1A
0J
1Q
1I
0P
0F
1H
1E
1B
1,
0-
1.
0K
1J
0Q
0I
1P
1F
0+
0,
1-
1K
0J
1Q
1+
1,
0K
0+
#410000
0!
08
10
#415000
1!
18
00
0S
1Y
1O
0N
1L
0X
1[
1R
17
1C
0'
1(
0)
1&
1I
0P
1D
0A
1J
0Q
0H
0E
0B
0,
0.
1K
1P
0F
1+
0-
1Q
1,
#420000
0!
08
10
#425000
1!
18
00
1S
1N
0L
1X
0Z
0[
0G
0C
1'
1)
0&
1H
1E
0D
1A
0P
1F
0E
1B
1-
1.
0Q
0F
0,
0-
#430000
0!
08
10
#435000
1!
18
00
0Y
0O
0N
1L
1[
0R
07
1C
0(
0)
1&
0I
1P
1D
0A
0J
1Q
1E
0B
1,
0.
0K
1F
0+
1-
#440000
0!
08
10
#445000
1!
18
00
0S
1Y
1N
0X
1Z
0[
1R
17
1G
0C
0'
1)
1I
0P
0H
0E
0D
1A
1J
0Q
1P
0F
1H
1E
1B
0,
0-
1.
1K
1Q
0P
1F
1+
1,
1-
0Q
0,
#450000
0!
08
10
#455000
1!
18
00
1S
0Y
1O
0N
0L
1X
1[
0R
07
1C
1'
1(
0)
0&
0I
1P
1D
0A
0J
1Q
0H
0E
0B
1,
0.
0K
1I
0P
0F
0+
0-
1J
0Q
0,
1K
1+
#460000
0!
08
10
#465000
1!
18
00
0S
1N
1L
0Z
0[
0G
0C
0'
1)
1&
1H
1E
0D
1A
0I
1P
1F
0E
1B
1-
1.
0J
1Q
0F
1,
0-
0K
0+
#470000
0!
08
10
#475000
1!
18
00
1Y
0O
0N
0X
1[
1R
17
1C
0(
0)
1I
0P
1D
0A
1J
0Q
1E
0B
0,
0.
1K
1F
1+
1-
#480000
0!
08
10
#485000
1!
18
00
1S
0Y
1N
0L
1X
1Z
0[
0R
07
1G
0C
1'
1)
0&
0I
1P
0H
0E
0D
1A
0J
1Q
1I
0P
0F
1H
1E
1B
1,
0-
1.
0K
1J
0Q
0I
1P
1F
0+
0,
1-
1K
0J
1Q
1+
1,
0K
0+
#490000
0!
08
10
#495000
1!
18
00
0S
1Y
1O
0N
1L
0X
1[
1R
17
1C
0'
1(
0)
1&
1I
0P
1D
0A
1J
0Q
0H
0E
0B
0,
0.
1K
1P
0F
1+
0-
1Q
1,
#500000
1$
0!
19
08
10
0K
1B
#505000
1!
18
00
1S
1N
0L
0Z
0G
1'
1)
0&
1H
1E
0P
1-
0,
#510000
0!
08
10
#515000
1!
18
00
0O
0(
#520000
0!
08
10
#525000
1!
18
00
#530000
0!
08
10
#535000
1!
18
00
#540000
0!
08
10
#545000
1!
18
00
#550000
0!
08
10
#555000
1!
18
00
#560000
0!
08
10
#565000
1!
18
00
#570000
0!
08
10
#575000
1!
18
00
#580000
0!
08
10
#585000
1!
18
00
#590000
0!
08
10
#595000
1!
18
00
#600000
0$
0!
09
08
10
0Q
1K
1F
0B
#605000
1!
18
00
0Y
1X
1Z
0[
0R
07
1G
0C
0I
1P
0H
0E
0D
1A
0J
1Q
1I
0P
0F
1H
1E
1B
1,
0-
1.
0K
1J
0Q
0I
1P
1F
0+
0,
1-
1K
0J
1Q
1+
1,
0K
0+
#610000
0!
08
10
#615000
1!
18
00
0S
1Y
1O
0N
1L
0X
1[
1R
17
1C
0'
1(
0)
1&
1I
0P
1D
0A
1J
0Q
0H
0E
0B
0,
0.
1K
1P
0F
1+
0-
1Q
1,
#620000
0!
08
10
#625000
1!
18
00
1S
1N
0L
1X
0Z
0[
0G
0C
1'
1)
0&
1H
1E
0D
1A
0P
1F
0E
1B
1-
1.
0Q
0F
0,
0-
#630000
0!
08
10
#635000
1!
18
00
0Y
0O
0N
1L
1[
0R
07
1C
0(
0)
1&
0I
1P
1D
0A
0J
1Q
1E
0B
1,
0.
0K
1F
0+
1-
#640000
0!
08
10
#645000
1!
18
00
0S
1Y
1N
0X
1Z
0[
1R
17
1G
0C
0'
1)
1I
0P
0H
0E
0D
1A
1J
0Q
1P
0F
1H
1E
1B
0,
0-
1.
1K
1Q
0P
1F
1+
1,
1-
0Q
0,
#650000
0!
08
10
#655000
1!
18
00
1S
0Y
1O
0N
0L
1X
1[
0R
07
1C
1'
1(
0)
0&
0I
1P
1D
0A
0J
1Q
0H
0E
0B
1,
0.
0K
1I
0P
0F
0+
0-
1J
0Q
0,
1K
1+
#660000
0!
08
10
#665000
1!
18
00
0S
1N
1L
0Z
0[
0G
0C
0'
1)
1&
1H
1E
0D
1A
0I
1P
1F
0E
1B
1-
1.
0J
1Q
0F
1,
0-
0K
0+
#670000
0!
08
10
#675000
1!
18
00
1Y
0O
0N
0X
1[
1R
17
1C
0(
0)
1I
0P
1D
0A
1J
0Q
1E
0B
0,
0.
1K
1F
1+
1-
#680000
0!
08
10
#685000
1!
18
00
1S
0Y
1N
0L
1X
1Z
0[
0R
07
1G
0C
1'
1)
0&
0I
1P
0H
0E
0D
1A
0J
1Q
1I
0P
0F
1H
1E
1B
1,
0-
1.
0K
1J
0Q
0I
1P
1F
0+
0,
1-
1K
0J
1Q
1+
1,
0K
0+
#690000
0!
08
10
#695000
1!
18
00
0S
1Y
1O
0N
1L
0X
1[
1R
17
1C
0'
1(
0)
1&
1I
0P
1D
0A
1J
0Q
0H
0E
0B
0,
0.
1K
1P
0F
1+
0-
1Q
1,
#700000
1$
0!
19
08
10
0K
1B
#705000
1!
18
00
1S
1N
0L
0Z
0G
1'
1)
0&
1H
1E
0P
1-
0,
#710000
0!
08
10
#715000
1!
18
00
0O
0(
#720000
0!
08
10
#725000
1!
18
00
#730000
0!
08
10
#735000
1!
18
00
#740000
0!
08
10
#745000
1!
18
00
#750000
0!
08
10
#755000
1!
18
00
#760000
0!
08
10
#765000
1!
18
00
#770000
0!
08
10
#775000
1!
18
00
#780000
0!
08
10
#785000
1!
18
00
#790000
0!
08
10
#795000
1!
18
00
#800000
0$
0!
09
08
10
0Q
1K
1F
0B
#805000
1!
18
00
0Y
1X
1Z
0[
0R
07
1G
0C
0I
1P
0H
0E
0D
1A
0J
1Q
1I
0P
0F
1H
1E
1B
1,
0-
1.
0K
1J
0Q
0I
1P
1F
0+
0,
1-
1K
0J
1Q
1+
1,
0K
0+
#810000
0!
08
10
#815000
1!
18
00
0S
1Y
1O
0N
1L
0X
1[
1R
17
1C
0'
1(
0)
1&
1I
0P
1D
0A
1J
0Q
0H
0E
0B
0,
0.
1K
1P
0F
1+
0-
1Q
1,
#820000
0!
08
10
#825000
1!
18
00
1S
1N
0L
1X
0Z
0[
0G
0C
1'
1)
0&
1H
1E
0D
1A
0P
1F
0E
1B
1-
1.
0Q
0F
0,
0-
#830000
0!
08
10
#835000
1!
18
00
0Y
0O
0N
1L
1[
0R
07
1C
0(
0)
1&
0I
1P
1D
0A
0J
1Q
1E
0B
1,
0.
0K
1F
0+
1-
#840000
0!
08
10
#845000
1!
18
00
0S
1Y
1N
0X
1Z
0[
1R
17
1G
0C
0'
1)
1I
0P
0H
0E
0D
1A
1J
0Q
1P
0F
1H
1E
1B
0,
0-
1.
1K
1Q
0P
1F
1+
1,
1-
0Q
0,
#850000
0!
08
10
#855000
1!
18
00
1S
0Y
1O
0N
0L
1X
1[
0R
07
1C
1'
1(
0)
0&
0I
1P
1D
0A
0J
1Q
0H
0E
0B
1,
0.
0K
1I
0P
0F
0+
0-
1J
0Q
0,
1K
1+
#860000
0!
08
10
#865000
1!
18
00
0S
1N
1L
0Z
0[
0G
0C
0'
1)
1&
1H
1E
0D
1A
0I
1P
1F
0E
1B
1-
1.
0J
1Q
0F
1,
0-
0K
0+
#870000
0!
08
10
#875000
1!
18
00
1Y
0O
0N
0X
1[
1R
17
1C
0(
0)
1I
0P
1D
0A
1J
0Q
1E
0B
0,
0.
1K
1F
1+
1-
#880000
0!
08
10
#885000
1!
18
00
1S
0Y
1N
0L
1X
1Z
0[
0R
07
1G
0C
1'
1)
0&
0I
1P
0H
0E
0D
1A
0J
1Q
1I
0P
0F
1H
1E
1B
1,
0-
1.
0K
1J
0Q
0I
1P
1F
0+
0,
1-
1K
0J
1Q
1+
1,
0K
0+
#890000
0!
08
10
#895000
1!
18
00
0S
1Y
1O
0N
1L
0X
1[
1R
17
1C
0'
1(
0)
1&
1I
0P
1D
0A
1J
0Q
0H
0E
0B
0,
0.
1K
1P
0F
1+
0-
1Q
1,
#900000
1$
0!
19
08
10
0K
1B
#905000
1!
18
00
1S
1N
0L
0Z
0G
1'
1)
0&
1H
1E
0P
1-
0,
#910000
0!
08
10
#915000
1!
18
00
0O
0(
#920000
0!
08
10
#925000
1!
18
00
#930000
0!
08
10
#935000
1!
18
00
#940000
0!
08
10
#945000
1!
18
00
#950000
0!
08
10
#955000
1!
18
00
#960000
0!
08
10
#965000
1!
18
00
#970000
0!
08
10
#975000
1!
18
00
#980000
0!
08
10
#985000
1!
18
00
#990000
0!
08
10
#995000
1!
18
00
